cubble: An R Package for Organizing and Wrangling Multivariate Spatio-temporal Data
…
# Spatial data

.pull-left[

```r
stations_sf
```

```
Simple feature collection with 59 features and 6 fields
Geometry type: POINT
Dimension:     XY
Bounding box:  xmin: 141.2652 ymin: -39.1297 xmax: 153.3633 ymax: -28.9786
Geodetic CRS:  GDA94
# A tibble: 59 × 7
  id           long   lat  elev name        wmo_id
* <chr>       <dbl> <dbl> <dbl> <chr>        <dbl>
1 ASN00047016  141. -34.0    43 lake victo…  94692
2 ASN00047019  142. -32.4    61 menindee p…  94694
3 ASN00048015  147. -30.0   115 brewarrina…  95512
4 ASN00048027  146. -31.5   260 cobar mo     94711
5 ASN00048031  149. -29.5   145 collareneb…  95520
# … with 54 more rows, and 1 more variable:
#   geometry <POINT [°]>
```
…
* With the sf class, we can do various geometrical operations in the space

---

# Temporal data

.pull-left-narrow[

```r
ts
```

```
# A tsibble: 1,099,052 x 3 [1D]
# Key:       id [59]
  id          date        tmax
  <chr>       <date>     <dbl>
1 ASN00047016 1971-01-01  25  
2 ASN00047016 1971-01-02  26.9
3 ASN00047016 1971-01-03  27.5
4 ASN00047016 1971-01-04  30  
5 ASN00047016 1971-01-05  34.4
# … with 1,099,047 more rows
```
…
--

.pull-right[

```r
attr(weather_long, "spatial") 
```

```
Simple feature collection with 59 features and 6 fields
Geometry type: POINT
Dimension:     XY
Bounding box:  xmin: 141.2652 ymin: -39.1297 xmax: 153.3633 ymax: -28.9786
Geodetic CRS:  GDA94
# A tibble: 59 × 7
# Rowwise:  id
  id          long   lat  elev
  <chr>      <dbl> <dbl> <dbl>
1 ASN000470…  141. -34.0    43
2 ASN000470…  142. -32.4    61
3 ASN000480…  147. -30.0   115
4 ASN000480…  146. -31.5   260
5 ASN000480…  149. -29.5   145
# … with 54 more rows, and 3
#   more variables:
#   name <chr>, wmo_id <dbl>,
#   geometry <POINT [°]>
```
…
